br\com\sw\planets\spring\config\DynamoDBConfiguration.class
br\com\sw\planets\spring\config\WebConfig$1.class
br\com\sw\planets\domain\document\PlanetDocument$PlanetDocumentBuilder.class
br\com\sw\planets\helper\FormatterHelper.class
br\com\sw\planets\web\client\StarWarsAPIClient.class
br\com\sw\planets\StartWarsPlanetsApplication.class
br\com\sw\planets\service\dto\StarWarsAPIPlanetDTO$StarWarsAPIPlanetDTOBuilder.class
br\com\sw\planets\domain\document\PlanetDocument.class
br\com\sw\planets\excepton\StarWarsAPINotFoundException.class
br\com\sw\planets\annotation\ProcessCreation.class
br\com\sw\planets\service\dto\StarWarsAPIResultPlanetDTO.class
br\com\sw\planets\service\StarWarsAPIService.class
br\com\sw\planets\excepton\handler\PlanetExceptionHandler.class
br\com\sw\planets\excepton\PlanetNotFoundException$Key.class
br\com\sw\planets\service\dto\ReponseExceptionDTO$ReponseExceptionDTOBuilder.class
br\com\sw\planets\service\dto\StarWarsAPIResultPlanetDTO$StarWarsAPIResultPlanetDTOBuilder.class
br\com\sw\planets\spring\config\SecurityConfig.class
br\com\sw\planets\spring\config\WebConfig$2.class
br\com\sw\planets\service\dto\StarWarsAPIPlanetDTO.class
br\com\sw\planets\service\PlanetService.class
br\com\sw\planets\service\dto\PlanetDocumentDTO.class
br\com\sw\planets\spring\config\SwaggerConfig.class
br\com\sw\planets\aspect\PlanetAspect.class
br\com\sw\planets\helper\DateHelper.class
br\com\sw\planets\spring\config\WebConfig.class
br\com\sw\planets\repository\PlanetRepository.class
br\com\sw\planets\excepton\PlanetPersistenceException.class
br\com\sw\planets\service\dto\PlanetDocumentDTO$PlanetDocumentDTOBuilder.class
br\com\sw\planets\excepton\PlanetNotFoundException.class
br\com\sw\planets\enums\FormatterEnum.class
br\com\sw\planets\excepton\PlanetDeletionException.class
br\com\sw\planets\web\rest\PlanetRestController.class
br\com\sw\planets\service\dto\ReponseExceptionDTO.class
