C:\dev\work-spaces\projects\app-sw-planets\src\test\java\br\com\sw\planets\web\rest\PlanetControllerTest.java
C:\dev\work-spaces\projects\app-sw-planets\src\test\java\br\com\sw\planets\service\PlanetServiceTest.java
C:\dev\work-spaces\projects\app-sw-planets\src\test\java\br\com\sw\planets\utils\ModelUtils.java
C:\dev\work-spaces\projects\app-sw-planets\src\test\java\br\com\sw\planets\utils\RequestUtils.java
